<svg width="24" height="24" viewBox="0 0 24 24" fill="none" xmlns="http://www.w3.org/2000/svg">
<path d="M8.4 9.5998L6 11.9998L11.4 17.3998L21.6 7.1998L19.2 4.7998L11.4 12.5998L8.4 9.5998Z" fill="white"/>
<circle cx="12" cy="12" r="10.5" stroke="white" stroke-width="3"/>
</svg>
